C:\Users\Pasqual\IdeaProjects\KlarCloudService-2.0\KlarCloudGlobal\KlarCloudAPI\KlarCloudAPISpigot\src\main\java\de\klarcloudservice\internal\events\CloudServerRemoveEvent.java
C:\Users\Pasqual\IdeaProjects\KlarCloudService-2.0\KlarCloudGlobal\KlarCloudAPI\KlarCloudAPISpigot\src\main\java\de\klarcloudservice\netty\in\PacketInRemoveSign.java
C:\Users\Pasqual\IdeaProjects\KlarCloudService-2.0\KlarCloudGlobal\KlarCloudAPI\KlarCloudAPISpigot\src\main\java\de\klarcloudservice\internal\events\CloudProxyAddEvent.java
C:\Users\Pasqual\IdeaProjects\KlarCloudService-2.0\KlarCloudGlobal\KlarCloudAPI\KlarCloudAPISpigot\src\main\java\de\klarcloudservice\KlarCloudAPISpigot.java
C:\Users\Pasqual\IdeaProjects\KlarCloudService-2.0\KlarCloudGlobal\KlarCloudAPI\KlarCloudAPISpigot\src\main\java\de\klarcloudservice\netty\packets\PacketOutStartProxy.java
C:\Users\Pasqual\IdeaProjects\KlarCloudService-2.0\KlarCloudGlobal\KlarCloudAPI\KlarCloudAPISpigot\src\main\java\de\klarcloudservice\commands\CommandSelectors.java
C:\Users\Pasqual\IdeaProjects\KlarCloudService-2.0\KlarCloudGlobal\KlarCloudAPI\KlarCloudAPISpigot\src\main\java\de\klarcloudservice\listener\PlayerConnectListener.java
C:\Users\Pasqual\IdeaProjects\KlarCloudService-2.0\KlarCloudGlobal\KlarCloudAPI\KlarCloudAPISpigot\src\main\java\de\klarcloudservice\netty\in\PacketInUpdateAll.java
C:\Users\Pasqual\IdeaProjects\KlarCloudService-2.0\KlarCloudGlobal\KlarCloudAPI\KlarCloudAPISpigot\src\main\java\de\klarcloudservice\netty\in\PacketInServerInfoUpdate.java
C:\Users\Pasqual\IdeaProjects\KlarCloudService-2.0\KlarCloudGlobal\KlarCloudAPI\KlarCloudAPISpigot\src\main\java\de\klarcloudservice\internal\events\CloudProxyRemoveEvent.java
C:\Users\Pasqual\IdeaProjects\KlarCloudService-2.0\KlarCloudGlobal\KlarCloudAPI\KlarCloudAPISpigot\src\main\java\de\klarcloudservice\netty\packets\PacketOutDeleteSign.java
C:\Users\Pasqual\IdeaProjects\KlarCloudService-2.0\KlarCloudGlobal\KlarCloudAPI\KlarCloudAPISpigot\src\main\java\de\klarcloudservice\netty\NettySocketClient.java
C:\Users\Pasqual\IdeaProjects\KlarCloudService-2.0\KlarCloudGlobal\KlarCloudAPI\KlarCloudAPISpigot\src\main\java\de\klarcloudservice\bootstrap\SpigotBootstrap.java
C:\Users\Pasqual\IdeaProjects\KlarCloudService-2.0\KlarCloudGlobal\KlarCloudAPI\KlarCloudAPISpigot\src\main\java\de\klarcloudservice\netty\packets\PacketOutUpdateInternalCloudNetwork.java
C:\Users\Pasqual\IdeaProjects\KlarCloudService-2.0\KlarCloudGlobal\KlarCloudAPI\KlarCloudAPISpigot\src\main\java\de\klarcloudservice\netty\packets\PacketOutServerInfoUpdate.java
C:\Users\Pasqual\IdeaProjects\KlarCloudService-2.0\KlarCloudGlobal\KlarCloudAPI\KlarCloudAPISpigot\src\main\java\de\klarcloudservice\netty\in\PacketInInitializeInternal.java
C:\Users\Pasqual\IdeaProjects\KlarCloudService-2.0\KlarCloudGlobal\KlarCloudAPI\KlarCloudAPISpigot\src\main\java\de\klarcloudservice\netty\packets\PacketOutRequestsSigns.java
C:\Users\Pasqual\IdeaProjects\KlarCloudService-2.0\KlarCloudGlobal\KlarCloudAPI\KlarCloudAPISpigot\src\main\java\de\klarcloudservice\netty\in\PacketInRequestSigns.java
C:\Users\Pasqual\IdeaProjects\KlarCloudService-2.0\KlarCloudGlobal\KlarCloudAPI\KlarCloudAPISpigot\src\main\java\de\klarcloudservice\netty\packets\PacketOutCheckPlayer.java
C:\Users\Pasqual\IdeaProjects\KlarCloudService-2.0\KlarCloudGlobal\KlarCloudAPI\KlarCloudAPISpigot\src\main\java\de\klarcloudservice\netty\in\PacketInPlayerAccepted.java
C:\Users\Pasqual\IdeaProjects\KlarCloudService-2.0\KlarCloudGlobal\KlarCloudAPI\KlarCloudAPISpigot\src\main\java\de\klarcloudservice\netty\packets\PacketOutStartGameServer.java
C:\Users\Pasqual\IdeaProjects\KlarCloudService-2.0\KlarCloudGlobal\KlarCloudAPI\KlarCloudAPISpigot\src\main\java\de\klarcloudservice\internal\events\CloudServerAddEvent.java
C:\Users\Pasqual\IdeaProjects\KlarCloudService-2.0\KlarCloudGlobal\KlarCloudAPI\KlarCloudAPISpigot\src\main\java\de\klarcloudservice\internal\events\CloudServerInfoUpdateEvent.java
C:\Users\Pasqual\IdeaProjects\KlarCloudService-2.0\KlarCloudGlobal\KlarCloudAPI\KlarCloudAPISpigot\src\main\java\de\klarcloudservice\signaddon\SignSelector.java
C:\Users\Pasqual\IdeaProjects\KlarCloudService-2.0\KlarCloudGlobal\KlarCloudAPI\KlarCloudAPISpigot\src\main\java\de\klarcloudservice\netty\in\PacketInProcessRemove.java
C:\Users\Pasqual\IdeaProjects\KlarCloudService-2.0\KlarCloudGlobal\KlarCloudAPI\KlarCloudAPISpigot\src\main\java\de\klarcloudservice\netty\in\PacketInCreateSign.java
C:\Users\Pasqual\IdeaProjects\KlarCloudService-2.0\KlarCloudGlobal\KlarCloudAPI\KlarCloudAPISpigot\src\main\java\de\klarcloudservice\netty\in\PacketInProcessAdd.java
C:\Users\Pasqual\IdeaProjects\KlarCloudService-2.0\KlarCloudGlobal\KlarCloudAPI\KlarCloudAPISpigot\src\main\java\de\klarcloudservice\netty\packets\PacketOutInternalProcessRemove.java
C:\Users\Pasqual\IdeaProjects\KlarCloudService-2.0\KlarCloudGlobal\KlarCloudAPI\KlarCloudAPISpigot\src\main\java\de\klarcloudservice\netty\packets\PacketOutCreateSign.java
