C:\Users\Pasqual\IdeaProjects\KlarCloudService-2.0\KlarCloudGlobal\KlarCloudClient\src\main\java\de\klarcloudservice\bootstrap\KlarCloudClientBootstrap.java
C:\Users\Pasqual\IdeaProjects\KlarCloudService-2.0\KlarCloudGlobal\KlarCloudClient\src\main\java\de\klarcloudservice\netty\NettySocketClient.java
C:\Users\Pasqual\IdeaProjects\KlarCloudService-2.0\KlarCloudGlobal\KlarCloudClient\src\main\java\de\klarcloudservice\serverprocess\setup\ProxyVersionSetup.java
C:\Users\Pasqual\IdeaProjects\KlarCloudService-2.0\KlarCloudGlobal\KlarCloudClient\src\main\java\de\klarcloudservice\utility\ClientAddonImpl.java
C:\Users\Pasqual\IdeaProjects\KlarCloudService-2.0\KlarCloudGlobal\KlarCloudClient\src\main\java\de\klarcloudservice\netty\in\PacketInExecuteCommand.java
C:\Users\Pasqual\IdeaProjects\KlarCloudService-2.0\KlarCloudGlobal\KlarCloudClient\src\main\java\de\klarcloudservice\serverprocess\setup\SpigotVersionSetup.java
C:\Users\Pasqual\IdeaProjects\KlarCloudService-2.0\KlarCloudGlobal\KlarCloudClient\src\main\java\de\klarcloudservice\netty\packets\PacketOutRemoveProcess.java
C:\Users\Pasqual\IdeaProjects\KlarCloudService-2.0\KlarCloudGlobal\KlarCloudClient\src\main\java\de\klarcloudservice\netty\in\PacketInCopyServerIntoTemplate.java
C:\Users\Pasqual\IdeaProjects\KlarCloudService-2.0\KlarCloudGlobal\KlarCloudClient\src\main\java\de\klarcloudservice\configuration\ClientConfiguration.java
C:\Users\Pasqual\IdeaProjects\KlarCloudService-2.0\KlarCloudGlobal\KlarCloudClient\src\main\java\de\klarcloudservice\netty\in\PacketInStopProcess.java
C:\Users\Pasqual\IdeaProjects\KlarCloudService-2.0\KlarCloudGlobal\KlarCloudClient\src\main\java\de\klarcloudservice\netty\packets\PacketOutUpdateInternalCloudNetwork.java
C:\Users\Pasqual\IdeaProjects\KlarCloudService-2.0\KlarCloudGlobal\KlarCloudClient\src\main\java\de\klarcloudservice\netty\in\PacketInUpdateAll.java
C:\Users\Pasqual\IdeaProjects\KlarCloudService-2.0\KlarCloudGlobal\KlarCloudClient\src\main\java\de\klarcloudservice\netty\packets\PacketOutAddProcess.java
C:\Users\Pasqual\IdeaProjects\KlarCloudService-2.0\KlarCloudGlobal\KlarCloudClient\src\main\java\de\klarcloudservice\netty\in\PacketInInitializeInternal.java
C:\Users\Pasqual\IdeaProjects\KlarCloudService-2.0\KlarCloudGlobal\KlarCloudClient\src\main\java\de\klarcloudservice\serverprocess\CloudProcessStartupHandler.java
C:\Users\Pasqual\IdeaProjects\KlarCloudService-2.0\KlarCloudGlobal\KlarCloudClient\src\main\java\de\klarcloudservice\serverprocess\startup\CloudServerStartupHandler.java
C:\Users\Pasqual\IdeaProjects\KlarCloudService-2.0\KlarCloudGlobal\KlarCloudClient\src\main\java\de\klarcloudservice\commands\CommandUpdate.java
C:\Users\Pasqual\IdeaProjects\KlarCloudService-2.0\KlarCloudGlobal\KlarCloudClient\src\main\java\de\klarcloudservice\netty\packets\PacketOutSendControllerConsoleMessage.java
C:\Users\Pasqual\IdeaProjects\KlarCloudService-2.0\KlarCloudGlobal\KlarCloudClient\src\main\java\de\klarcloudservice\netty\in\PacketInStartProxy.java
C:\Users\Pasqual\IdeaProjects\KlarCloudService-2.0\KlarCloudGlobal\KlarCloudClient\src\main\java\de\klarcloudservice\commands\CommandExit.java
C:\Users\Pasqual\IdeaProjects\KlarCloudService-2.0\KlarCloudGlobal\KlarCloudClient\src\main\java\de\klarcloudservice\commands\CommandHelp.java
C:\Users\Pasqual\IdeaProjects\KlarCloudService-2.0\KlarCloudGlobal\KlarCloudClient\src\main\java\de\klarcloudservice\serverprocess\screen\CloudProcessScreenService.java
C:\Users\Pasqual\IdeaProjects\KlarCloudService-2.0\KlarCloudGlobal\KlarCloudClient\src\main\java\de\klarcloudservice\netty\in\PacketInServerInfoUpdate.java
C:\Users\Pasqual\IdeaProjects\KlarCloudService-2.0\KlarCloudGlobal\KlarCloudClient\src\main\java\de\klarcloudservice\netty\in\PacketInStartGameServer.java
C:\Users\Pasqual\IdeaProjects\KlarCloudService-2.0\KlarCloudGlobal\KlarCloudClient\src\main\java\de\klarcloudservice\KlarCloudClient.java
C:\Users\Pasqual\IdeaProjects\KlarCloudService-2.0\KlarCloudGlobal\KlarCloudClient\src\main\java\de\klarcloudservice\serverprocess\startup\ProxyStartupHandler.java
